…
# Top 5 occupations in dataset


```r
selected_data <- health_data %>% 
  filter(occupation=="Nurse"| occupation=="Doctor"| occupation=="Engineer"| occupation=="Lawyer"| occupation=="Teacher")
selected_data
```

```
## # A tibble: 293 × 13
##    person_id gender   age occupation sleep_duration quality_of_sleep
##        <dbl> <chr>  <dbl> <chr>               <dbl>            <dbl>
##  1         2 Male      28 Doctor                6.2                6
##  2         3 Male      28 Doctor                6.2                6
##  3         7 Male      29 Teacher               6.3                6
##  4         8 Male      29 Doctor                7.8                7
##  5         9 Male      29 Doctor                7.8                7
##  6        10 Male      29 Doctor                7.8                7
##  7        11 Male      29 Doctor                6.1                6
##  8        12 Male      29 Doctor                7.8                7
##  9        13 Male      29 Doctor                6.1                6
## 10        14 Male      29 Doctor                6                  6
## # ℹ 283 more rows
## # ℹ 7 more variables: physical_activity_level <dbl>, stress_level <dbl>,
## #   bmi_category <chr>, blood_pressure <chr>, heart_rate <dbl>,
## #   daily_steps <dbl>, sleep_disorder <chr>
```
…
